Example input datasets for Transition Risk Score — example_emissions_profile_at_product_level • tiltTransitionRisk
…
    Usage

example_emissions_profile_at_product_level()

example_sector_profile_at_product_level()

    Value

    A dataframe.

    Examples

example_emissions_profile_at_product_level()
#> # A tibble: 456 × 32
#>    companies_id       company_name country emission_profile benchmark ep_product
#>    <chr>              <chr>        <chr>   <chr>            <chr>     <chr>     
#>  1 asteria_megalotom… asteria_meg… austria high             all       tent      
#>  2 asteria_megalotom… asteria_meg… austria high             isic_4di… tent      
#>  3 asteria_megalotom… asteria_meg… austria high             tilt_sub… tent      
#>  4 asteria_megalotom… asteria_meg… austria high             unit      tent      
#>  5 asteria_megalotom… asteria_meg… austria high             unit_isi… tent      
#>  6 asteria_megalotom… asteria_meg… austria high             unit_til… tent      
#>  7 skarn_gallinule    skarn_galli… austria high             all       sheds, co…
#>  8 skarn_gallinule    skarn_galli… austria high             isic_4di… sheds, co…
#>  9 skarn_gallinule    skarn_galli… austria high             tilt_sub… sheds, co…
#> 10 skarn_gallinule    skarn_galli… austria high             unit      sheds, co…
#> # ℹ 446 more rows
#> # ℹ 26 more variables: matched_activity_name <chr>,
#> #   matched_reference_product <chr>, unit <chr>, multi_match <lgl>,
#> #   matching_certainty <chr>, matching_certainty_company_average <chr>,
#> #   tilt_sector <chr>, tilt_subsector <chr>, isic_4digit <chr>,
#> #   isic_4digit_name <chr>, company_city <chr>, postcode <chr>, address <chr>,
#> #   main_activity <chr>, activity_uuid_product_uuid <chr>, …
example_sector_profile_at_product_level()
#> # A tibble: 304 × 33
#>    companies_id   company_name country sector_profile reduction_targets scenario
#>    <chr>          <chr>        <chr>   <chr>                      <dbl> <chr>   
#>  1 antimonarchy_… antimonarch… germany medium                      0.18 1.5C RPS
#>  2 antimonarchy_… antimonarch… germany high                        0.98 1.5C RPS
#>  3 antimonarchy_… antimonarch… germany high                        0.4  NZ 2050 
#>  4 antimonarchy_… antimonarch… germany high                        0.97 NZ 2050 
#>  5 celestial_lov… celestial_l… spain   medium                      0.18 1.5C RPS
#>  6 celestial_lov… celestial_l… spain   high                        0.98 1.5C RPS
#>  7 celestial_lov… celestial_l… spain   high                        0.4  NZ 2050 
#>  8 celestial_lov… celestial_l… spain   high                        0.97 NZ 2050 
#>  9 nonphilosophi… nonphilosop… germany low                         0.09 1.5C RPS
#> 10 nonphilosophi… nonphilosop… germany high                        0.95 1.5C RPS
#> # ℹ 294 more rows
#> # ℹ 27 more variables: year <dbl>, ep_product <chr>,
#> #   matched_activity_name <chr>, matched_reference_product <chr>, unit <chr>,
#> #   tilt_sector <chr>, tilt_subsector <chr>, multi_match <lgl>,
#> #   matching_certainty <chr>, matching_certainty_company_average <chr>,
#> #   company_city <chr>, postcode <chr>, address <chr>, main_activity <chr>,
#> #   activity_uuid_product_uuid <chr>, isic_4digit <chr>, …
…
