Add transition risk score and polish the output for delivery — score_transition_risk_and_polish • tiltTransitionRisk
…
result <- score_transition_risk_and_polish(emissions_profile,
  sector_profile,
  include_co2 = TRUE
)

result |> unnest_product()
#> # A tibble: 1,824 × 35
#>    companies_id                country main_activity ep_product postcode address
#>    <chr>                       <chr>   <chr>         <chr>      <chr>    <chr>  
#>  1 asteria_megalotomusquinque… austria wholesaler    tent       3150     flesch…
#>  2 asteria_megalotomusquinque… austria wholesaler    tent       3150     flesch…
#>  3 asteria_megalotomusquinque… austria wholesaler    tent       3150     flesch…
#>  4 asteria_megalotomusquinque… austria wholesaler    tent       3150     flesch…
#>  5 asteria_megalotomusquinque… austria wholesaler    tent       3150     flesch…
#>  6 asteria_megalotomusquinque… austria wholesaler    tent       3150     flesch…
#>  7 asteria_megalotomusquinque… austria wholesaler    tent       3150     flesch…
#>  8 asteria_megalotomusquinque… austria wholesaler    tent       3150     flesch…
#>  9 asteria_megalotomusquinque… austria wholesaler    tent       3150     flesch…
#> 10 asteria_megalotomusquinque… austria wholesaler    tent       3150     flesch…
#> # ℹ 1,814 more rows
#> # ℹ 29 more variables: activity_uuid_product_uuid <chr>,
#> #   matched_activity_name <chr>, matched_reference_product <chr>, unit <chr>,
#> #   co2e_lower <dbl>, co2e_upper <dbl>, emission_profile <chr>,
#> #   benchmark <chr>, profile_ranking <dbl>, min_headcount <dbl>,
#> #   max_headcount <dbl>, emissions_profile_best_case <dbl>,
#> #   emissions_profile_worst_case <dbl>, matching_certainty <chr>, …

result |> unnest_company()
#> # A tibble: 27,648 × 20
#>    companies_id    company_name country main_activity postcode address benchmark
#>    <chr>           <chr>        <chr>   <chr>         <chr>    <chr>   <chr>    
#>  1 asteria_megalo… asteria_meg… austria wholesaler    3150     flesch… all      
#>  2 asteria_megalo… asteria_meg… austria wholesaler    3150     flesch… all      
#>  3 asteria_megalo… asteria_meg… austria wholesaler    3150     flesch… all      
#>  4 asteria_megalo… asteria_meg… austria wholesaler    3150     flesch… all      
#>  5 asteria_megalo… asteria_meg… austria wholesaler    3150     flesch… all      
#>  6 asteria_megalo… asteria_meg… austria wholesaler    3150     flesch… all      
#>  7 asteria_megalo… asteria_meg… austria wholesaler    3150     flesch… all      
#>  8 asteria_megalo… asteria_meg… austria wholesaler    3150     flesch… all      
#>  9 asteria_megalo… asteria_meg… austria wholesaler    3150     flesch… all      
#> 10 asteria_megalo… asteria_meg… austria wholesaler    3150     flesch… all      
#> # ℹ 27,638 more rows
#> # ℹ 13 more variables: min_headcount <dbl>, max_headcount <dbl>,
#> #   emission_profile <chr>, emission_profile_share <dbl>,
#> #   profile_ranking_avg <dbl>, co2_avg <dbl>, sector_profile <chr>,
#> #   sector_profile_share <dbl>, scenario <chr>, year <dbl>,
#> #   reduction_targets_avg <dbl>, benchmark_tr_score_avg <chr>,
#> #   transition_risk_score_avg <dbl>
…
