tiltTransitionRisk options — tiltIndicatorAfter_options • tiltTransitionRisk
…
result <- profile_emissions(
  companies,
  products,
  europages_companies = europages_companies,
  ecoinvent_activities = ecoinvent_activities,
  ecoinvent_europages = ecoinvent_europages,
  isic = isic_name
)

result |>
  unnest_product() |>
  select(matches(c("co2")))
#> # A tibble: 532 × 3
#>    co2_footprint co2e_lower co2e_upper
#>            <dbl>      <dbl>      <dbl>
#>  1          303.       18.8       797.
#>  2          303.     -236.        834.
#>  3          303.       76.3       306.
#>  4          303.      157.        651.
#>  5          303.       20.9       445.
#>  6          303.      281.        683.
#>  7           NA        NA          NA 
#>  8          303.       18.8       797.
#>  9          303.     -236.        834.
#> 10          303.       76.3       306.
#> # ℹ 522 more rows

result |>
  unnest_company() |>
  select(matches(c("co2")))
#> # A tibble: 1,728 × 1
#>    co2_avg
#>      <dbl>
#>  1    303.
#>  2    303.
#>  3    303.
#>  4    303.
#>  5    303.
#>  6    303.
#>  7    303.
#>  8    303.
#>  9    303.
#> 10    303.
#> # ℹ 1,718 more rows
…
