Calculate the indicator "transition risk profile" — transition_risk_profile • tiltTransitionRisk
…
output <- transition_risk_profile(
  emissions_profile = toy_emissions_profile,
  sector_profile = toy_sector_profile,
  co2 = toy_emissions_profile_products_ecoinvent,
  all_activities_scenario_sectors = toy_all_activities_scenario_sectors,
  scenarios = toy_sector_profile_any_scenarios,
  for_webtool = FALSE
)

output |> unnest_product()
#> # A tibble: 1,824 × 45
#>    companies_id      company_name country postcode address main_activity product
#>    <chr>             <chr>        <chr>   <chr>    <chr>   <chr>         <chr>  
#>  1 asteria_megaloto… asteria_meg… austria 3150     flesch… wholesaler    tent   
#>  2 asteria_megaloto… asteria_meg… austria 3150     flesch… wholesaler    tent   
#>  3 asteria_megaloto… asteria_meg… austria 3150     flesch… wholesaler    tent   
#>  4 asteria_megaloto… asteria_meg… austria 3150     flesch… wholesaler    tent   
#>  5 asteria_megaloto… asteria_meg… austria 3150     flesch… wholesaler    tent   
#>  6 asteria_megaloto… asteria_meg… austria 3150     flesch… wholesaler    tent   
#>  7 asteria_megaloto… asteria_meg… austria 3150     flesch… wholesaler    tent   
#>  8 asteria_megaloto… asteria_meg… austria 3150     flesch… wholesaler    tent   
#>  9 asteria_megaloto… asteria_meg… austria 3150     flesch… wholesaler    tent   
#> 10 asteria_megaloto… asteria_meg… austria 3150     flesch… wholesaler    tent   
#> # ℹ 1,814 more rows
#> # ℹ 38 more variables: matched_activity_name <chr>,
#> #   matched_reference_product <chr>, matching_certainty <chr>,
#> #   co2_footprint <dbl>, unit <chr>, isic_4digit <chr>, tilt_sector <chr>,
#> #   tilt_subsector <chr>, grouping_emission <chr>, co2e_lower <dbl>,
#> #   co2e_upper <dbl>, emission_rank <dbl>, emission_category <chr>,
#> #   emissions_profile_equal_weight <dbl>, emissions_profile_best_case <dbl>, …

output |> unnest_company()
#> # A tibble: 1,728 × 38
#>    companies_id                  company_name country co2e_avg grouping_emission
#>    <chr>                         <chr>        <chr>      <dbl> <chr>            
#>  1 asteria_megalotomusquinquesp… asteria_meg… austria     303. all              
#>  2 asteria_megalotomusquinquesp… asteria_meg… austria     303. all              
#>  3 asteria_megalotomusquinquesp… asteria_meg… austria     303. all              
#>  4 asteria_megalotomusquinquesp… asteria_meg… austria     303. all              
#>  5 asteria_megalotomusquinquesp… asteria_meg… austria     303. isic_4digit      
#>  6 asteria_megalotomusquinquesp… asteria_meg… austria     303. isic_4digit      
#>  7 asteria_megalotomusquinquesp… asteria_meg… austria     303. isic_4digit      
#>  8 asteria_megalotomusquinquesp… asteria_meg… austria     303. isic_4digit      
#>  9 asteria_megalotomusquinquesp… asteria_meg… austria     303. tilt_subsector   
#> 10 asteria_megalotomusquinquesp… asteria_meg… austria     303. tilt_subsector   
#> # ℹ 1,718 more rows
#> # ℹ 33 more variables: emission_rank_avg_equal_weight <dbl>,
#> #   emission_rank_avg_best_case <dbl>, emission_rank_avg_worst_case <dbl>,
#> #   emission_category_low <dbl>, emission_category_medium <dbl>,
#> #   emission_category_high <dbl>, emission_category_NA <dbl>, scenario <chr>,
#> #   year <dbl>, sector_target_avg_equal_weight <dbl>,
#> #   sector_target_avg_best_case <dbl>, sector_target_avg_worst_case <dbl>, …
…
